nLevel nMice dMiceRate nMiceDist nBoulders nSpeed nWallCode (first line: nLength nScore nLives) 
2 0 5
1 	6 	.05 	1 		5 	6 	3
2 	7 	.1 	0 		15 	6 	1
3 	8 	.15 	0 		30 	5 	0
4 	10 	.2 	0 		20 	4 	2
5 	10 	.2 	0 		15 	3 	3
