nLevel nMice dMiceRate nMiceDistance nBoulders nSpeed nWallCode (nLength nScore nLives)
13 0 4
1	5 	.05 	5 		30 	5 	3 
2 	6 	.05	 	3 		40 	5 	2
3 	7 	.15 	10		20 	3 	1
4 	6 	.05 	2 		50 	4 	3
5 	5 	.2	 	12 		25 	2 	0
